[gd_scene load_steps=3 format=2]

[ext_resource path="res://src/scripts/infinite_scene.gd" type="Script" id=1]
[ext_resource path="res://src/scenes/platform.tscn" type="PackedScene" id=2]

[node name="InfiniteScene" type="Node2D"]
script = ExtResource( 1 )
scene = ExtResource( 2 )
