[gd_scene load_steps=7 format=2]

[ext_resource path="res://src/scenes/player.tscn" type="PackedScene" id=1]
[ext_resource path="res://src/scenes/hud.tscn" type="PackedScene" id=2]
[ext_resource path="res://src/scenes/infinite_scene.tscn" type="PackedScene" id=3]
[ext_resource path="res://src/scenes/fire.tscn" type="PackedScene" id=4]
[ext_resource path="res://src/scenes/infinite_platform.tscn" type="PackedScene" id=5]
[ext_resource path="res://src/scenes/goblin_pack.tscn" type="PackedScene" id=6]

[node name="World" type="Node"]

[node name="Player" parent="." instance=ExtResource( 1 )]
position = Vector2( 515.865, 346.101 )
z_index = 1

[node name="Camera2D" type="Camera2D" parent="Player"]
current = true
limit_bottom = 600

[node name="InfiniteFire" parent="." instance=ExtResource( 3 )]
position = Vector2( 519.885, 593.01 )
scene = ExtResource( 4 )

[node name="StackedPlatforms" parent="." instance=ExtResource( 3 )]
position = Vector2( 517.633, 426.093 )
scene = ExtResource( 5 )
node_distance = 150
place_nodes_vertically = true

[node name="CanvasLayer" type="CanvasLayer" parent="."]

[node name="HUD" parent="CanvasLayer" instance=ExtResource( 2 )]

[node name="GoblinPack" parent="." instance=ExtResource( 6 )]
position = Vector2( 10.2527, 278.874 )
